%YAML 1.1
%TAG !u! tag:unity3d.com,2011:
--- !u!114 &11400000
MonoBehaviour:
  m_ObjectHideFlags: 0
  m_CorrespondingSourceObject: {fileID: 0}
  m_PrefabInstance: {fileID: 0}
  m_PrefabAsset: {fileID: 0}
  m_GameObject: {fileID: 0}
  m_Enabled: 1
  m_EditorHideFlags: 0
  m_Script: {fileID: 11500000, guid: a29f67b488b4458983fd973bbda8c8fa, type: 3}
  m_Name: PackageManifestConfig
  m_EditorClassIdentifier: 
  homepage: https://gitlab.com/pd-packages/ecs-installer-generator
  sourcePath: Assets/Playdarium/EcsInstallerGenerator
  documentationPath: Documentation~
  readmePath: README.md
  changelogPath: CHANGELOG.md
  licensePath: LICENSE
  license: MIT
  packageIgnorePaths: []
  packageDestinationPath: Release
  legacyPackageDestinationPath: 
  packageName: com.playdarium.unity.ecs-installer-generator
  displayName: ECS Installer Generator
  packageVersion: 1.0.3
  unityVersion: 2021.3
  description: 
  category: Untiy
  author:
    name: Playdarium
    email: playdarium@gmail.com
    url: https://playdarium.com
  keywords:
  - generator
  - installer
  - ecs
  dependencies:
  - packageName: com.playdarium.unity.editor-project-settings
    packageVersion: 1.0.0
  samples: []
  versionConstantsPath: 
  versionConstantsNamespace: 
  _id: b5f4c753-b36d-4666-a276-8803b1436bbf
