{
    "name": "Playdarium.EcsInstallerGenerator.Editor",
    "rootNamespace": "",
    "references": [
        "GUID:7505bc78b20e5bec4a1da3d127032abc",
        "GUID:ca9f2cdcd27647f67bf88bf64da98908"
    ],
    "includePlatforms": [
        "Editor"
    ],
    "excludePlatforms": [],
    "allowUnsafeCode": false,
    "overrideReferences": false,
    "precompiledReferences": [],
    "autoReferenced": true,
    "defineConstraints": [],
    "versionDefines": [],
    "noEngineReferences": false
}